sim/slave.vcd
$date
	Tue Apr 22 15:54:40 2025
$end
$version
	QuestaSim Version 2021.2_1
$end
$timescale
	1ns
$end

$scope module tb $end

$scope module vif $end
$var parameter 32 ! addr_width $end
$var parameter 32 " data_width $end
$var wire 1 # PCLK $end
$var wire 1 $ PRESETn $end
$var reg 1 % PSEL $end
$var reg 1 & PWRITE $end
$var reg 1 ' PENABLE $end
$var reg 32 ( PADDR [31:0] $end
$var reg 32 ) PWDATA [31:0] $end
$var reg 4 * PSTRB [0:3] $end
$var reg 32 + PRDATA [31:0] $end
$var reg 1 , PREADY $end
$var reg 1 - PSLVERR $end
$upscope $end
$upscope $end
$enddefinitions $end
#0
$dumpvars
x%
x&
x'
bx (
bx )
bx *
bx +
x,
x-
b100000 !
b100000 "
0$
0#
$end
#10
1#
1'
1%
0&
b1000010011011110011010001110 )
b1001110111 (
b0 *
#20
0#
1,
b0 +
0-
#30
1$
1#
1&
b10011101101100110100101001011 )
b1100111000 (
b1111 *
#40
0#
#50
1#
b10010101000111010101111111001 )
b110000110 (
b11 *
#60
0#
#70
1#
b1010001101000110110000111101011 )
b11101 (
b10 *
#80
0#
#90
1#
b1110010111100001001110110010100 )
b1010111 (
b1101 *
#100
0#
#110
1#
0&
b1111000101000000010001010100010 )
b11011101 (
b0 *
#120
0#
#130
1#
b1011110110111111100101111011101 )
b1100011011 (
#140
0#
#150
1#
1&
b11111110111101110010111111011111 )
b110010000 (
b1111 *
#160
0#
#170
1#
0&
b10000001110001100001100000000101 )
b1011110111 (
b0 *
#180
0#
#190
1#
b11011010001111111110001110101111 )
b1010111000 (
