sim/transcript
# vsim -c -assertdebug -msgmode both work.tb_opt 
# Start time: 15:54:32 on Apr 22,2025
# //  Questa Sim
# //  Version 2021.2_1 linux May 15 2021
# //
# //  Copyright 1991-2021 Mentor Graphics Corporation
# //  All Rights Reserved.
# //
# //  QuestaSim and its associated documentation contain trade
# //  secrets and commercial or financial information that are the property of
# //  Mentor Graphics Corporation and are privileged, confidential,
# //  and exempt from disclosure under the Freedom of Information Act,
# //  5 U.S.C. Section 552. Furthermore, this information
# //  is prohibited from disclosure under the Trade Secrets Act,
# //  18 U.S.C. Section 1905.
# //
# Loading sv_std.std
# Loading work.tb_sv_unit(fast)
# Loading work.tb(fast)
# Loading work.apb_slave_if(fast__2)
# Loading work.test(fast)
# Loading work.apb_slave_if(fast)
# [gen] : data send 10 
# PSEL =1,PWRITE = 0, PENABLE = 1, PADDR = 00000000000000000000001001110111, PWDATA = 00001000010011011110011010001110, PSTRB = 0000, PRDATA = 00000000000000000000000000000000, PREADY = 0, PSLVERR = 0                  10
# [drv] : data send to interface 20
# PSEL =1,PWRITE = 0, PENABLE = 1, PADDR = 00000000000000000000001001110111, PWDATA = 00001000010011011110011010001110, PSTRB = 0000, PRDATA = xxxxxxxxxxxxxxxxxxxxxxxxxxxxxxxx, PREADY = x, PSLVERR = x,count = 1
# [mon] : data received from interface at 20
# PSEL =1,PWRITE = 0, PENABLE = 1, PADDR = 00000000000000000000001001110111, PWDATA = 00001000010011011110011010001110, PSTRB = 0000, PRDATA = 00000000000000000000000000000000, PREADY = 0, PSLVERR = 0                  20
# valid PSTRB
# [scb] : data received from monitor at 20 count = 1
# PSEL =1,PWRITE = 0, PENABLE = 1, PADDR = 00000000000000000000001001110111, PWDATA = 00001000010011011110011010001110, PSTRB = 0000, PRDATA = 00000000000000000000000000000000, PREADY = 0, PSLVERR = 0                  20
# ________________________________
# ***********************************************************
# [gen] : data send 30 
# PSEL =1,PWRITE = 1, PENABLE = 1, PADDR = 00000000000000000000001100111000, PWDATA = 00010011101101100110100101001011, PSTRB = 1111, PRDATA = 00000000000000000000000000000000, PREADY = 0, PSLVERR = 0                  30
# [drv] : data send to interface 40
# PSEL =1,PWRITE = 1, PENABLE = 1, PADDR = 00000000000000000000001100111000, PWDATA = 00010011101101100110100101001011, PSTRB = 1111, PRDATA = 00000000000000000000000000000000, PREADY = 1, PSLVERR = 0,count = 2
# [mon] : data received from interface at 40
# PSEL =1,PWRITE = 1, PENABLE = 1, PADDR = 00000000000000000000001100111000, PWDATA = 00010011101101100110100101001011, PSTRB = 1111, PRDATA = 00000000000000000000000000000000, PREADY = 1, PSLVERR = 0                  40
# [scb] : data received from monitor at 40 count = 2
# PSEL =1,PWRITE = 1, PENABLE = 1, PADDR = 00000000000000000000001100111000, PWDATA = 00010011101101100110100101001011, PSTRB = 1111, PRDATA = 00000000000000000000000000000000, PREADY = 1, PSLVERR = 0                  40
# ________________________________
# [scb] match at addr 824: expected = 75,found = 75
# [scb] match at addr 825: expected = 105,found = 105
# [scb] match at addr 826: expected = -74,found = -74
# [scb] match at addr 827: expected = 19,found = 19
# ***********************************************************
# [gen] : data send 50 
# PSEL =1,PWRITE = 1, PENABLE = 1, PADDR = 00000000000000000000000110000110, PWDATA = 00010010101000111010101111111001, PSTRB = 0011, PRDATA = 00000000000000000000000000000000, PREADY = 0, PSLVERR = 0                  50
# [drv] : data send to interface 60
# PSEL =1,PWRITE = 1, PENABLE = 1, PADDR = 00000000000000000000000110000110, PWDATA = 00010010101000111010101111111001, PSTRB = 0011, PRDATA = 00000000000000000000000000000000, PREADY = 1, PSLVERR = 0,count = 3
# [mon] : data received from interface at 60
# PSEL =1,PWRITE = 1, PENABLE = 1, PADDR = 00000000000000000000000110000110, PWDATA = 00010010101000111010101111111001, PSTRB = 0011, PRDATA = 00000000000000000000000000000000, PREADY = 1, PSLVERR = 0                  60
# [scb] : data received from monitor at 60 count = 3
# PSEL =1,PWRITE = 1, PENABLE = 1, PADDR = 00000000000000000000000110000110, PWDATA = 00010010101000111010101111111001, PSTRB = 0011, PRDATA = 00000000000000000000000000000000, PREADY = 1, PSLVERR = 0                  60
# ________________________________
# [scb] match at addr 390: expected = -93,found = -93
# [scb] match at addr 391: expected = 18,found = 18
# ***********************************************************
# [gen] : data send 70 
# PSEL =1,PWRITE = 1, PENABLE = 1, PADDR = 00000000000000000000000000011101, PWDATA = 01010001101000110110000111101011, PSTRB = 0010, PRDATA = 00000000000000000000000000000000, PREADY = 0, PSLVERR = 0                  70
# [drv] : data send to interface 80
# PSEL =1,PWRITE = 1, PENABLE = 1, PADDR = 00000000000000000000000000011101, PWDATA = 01010001101000110110000111101011, PSTRB = 0010, PRDATA = 00000000000000000000000000000000, PREADY = 1, PSLVERR = 0,count = 4
# [mon] : data received from interface at 80
# PSEL =1,PWRITE = 1, PENABLE = 1, PADDR = 00000000000000000000000000011101, PWDATA = 01010001101000110110000111101011, PSTRB = 0010, PRDATA = 00000000000000000000000000000000, PREADY = 1, PSLVERR = 0                  80
# [scb] : data received from monitor at 80 count = 4
# PSEL =1,PWRITE = 1, PENABLE = 1, PADDR = 00000000000000000000000000011101, PWDATA = 01010001101000110110000111101011, PSTRB = 0010, PRDATA = 00000000000000000000000000000000, PREADY = 1, PSLVERR = 0                  80
# ________________________________
# [scb] match at addr 29: expected = -93,found = -93
# ***********************************************************
# [gen] : data send 90 
# PSEL =1,PWRITE = 1, PENABLE = 1, PADDR = 00000000000000000000000001010111, PWDATA = 01110010111100001001110110010100, PSTRB = 1101, PRDATA = 00000000000000000000000000000000, PREADY = 0, PSLVERR = 0                  90
# [drv] : data send to interface 100
# PSEL =1,PWRITE = 1, PENABLE = 1, PADDR = 00000000000000000000000001010111, PWDATA = 01110010111100001001110110010100, PSTRB = 1101, PRDATA = 00000000000000000000000000000000, PREADY = 1, PSLVERR = 0,count = 5
# [mon] : data received from interface at 100
# PSEL =1,PWRITE = 1, PENABLE = 1, PADDR = 00000000000000000000000001010111, PWDATA = 01110010111100001001110110010100, PSTRB = 1101, PRDATA = 00000000000000000000000000000000, PREADY = 1, PSLVERR = 0                 100
# [scb] : data received from monitor at 100 count = 5
# PSEL =1,PWRITE = 1, PENABLE = 1, PADDR = 00000000000000000000000001010111, PWDATA = 01110010111100001001110110010100, PSTRB = 1101, PRDATA = 00000000000000000000000000000000, PREADY = 1, PSLVERR = 0                 100
# ________________________________
# [scb] match at addr 87: expected = -108,found = -108
# [scb] match at addr 88: expected = -99,found = -99
# [scb] match at addr 89: expected = 114,found = 114
# ***********************************************************
# [gen] : data send 110 
# PSEL =1,PWRITE = 0, PENABLE = 1, PADDR = 00000000000000000000000011011101, PWDATA = 01111000101000000010001010100010, PSTRB = 0000, PRDATA = 00000000000000000000000000000000, PREADY = 0, PSLVERR = 0                 110
# [drv] : data send to interface 120
# PSEL =1,PWRITE = 0, PENABLE = 1, PADDR = 00000000000000000000000011011101, PWDATA = 01111000101000000010001010100010, PSTRB = 0000, PRDATA = 00000000000000000000000000000000, PREADY = 1, PSLVERR = 0,count = 6
# [mon] : data received from interface at 120
# PSEL =1,PWRITE = 0, PENABLE = 1, PADDR = 00000000000000000000000011011101, PWDATA = 01111000101000000010001010100010, PSTRB = 0000, PRDATA = 00000000000000000000000000000000, PREADY = 1, PSLVERR = 0                 120
# valid PSTRB
# [scb] : data received from monitor at 120 count = 6
# PSEL =1,PWRITE = 0, PENABLE = 1, PADDR = 00000000000000000000000011011101, PWDATA = 01111000101000000010001010100010, PSTRB = 0000, PRDATA = 00000000000000000000000000000000, PREADY = 1, PSLVERR = 0                 120
# ________________________________
# ***********************************************************
# [gen] : data send 130 
# PSEL =1,PWRITE = 0, PENABLE = 1, PADDR = 00000000000000000000001100011011, PWDATA = 01011110110111111100101111011101, PSTRB = 0000, PRDATA = 00000000000000000000000000000000, PREADY = 0, PSLVERR = 0                 130
# [drv] : data send to interface 140
# PSEL =1,PWRITE = 0, PENABLE = 1, PADDR = 00000000000000000000001100011011, PWDATA = 01011110110111111100101111011101, PSTRB = 0000, PRDATA = 00000000000000000000000000000000, PREADY = 1, PSLVERR = 0,count = 7
# [mon] : data received from interface at 140
# PSEL =1,PWRITE = 0, PENABLE = 1, PADDR = 00000000000000000000001100011011, PWDATA = 01011110110111111100101111011101, PSTRB = 0000, PRDATA = 00000000000000000000000000000000, PREADY = 1, PSLVERR = 0                 140
# valid PSTRB
# [scb] : data received from monitor at 140 count = 7
# PSEL =1,PWRITE = 0, PENABLE = 1, PADDR = 00000000000000000000001100011011, PWDATA = 01011110110111111100101111011101, PSTRB = 0000, PRDATA = 00000000000000000000000000000000, PREADY = 1, PSLVERR = 0                 140
# ________________________________
# ***********************************************************
# [gen] : data send 150 
# PSEL =1,PWRITE = 1, PENABLE = 1, PADDR = 00000000000000000000000110010000, PWDATA = 11111110111101110010111111011111, PSTRB = 1111, PRDATA = 00000000000000000000000000000000, PREADY = 0, PSLVERR = 0                 150
# [drv] : data send to interface 160
# PSEL =1,PWRITE = 1, PENABLE = 1, PADDR = 00000000000000000000000110010000, PWDATA = 11111110111101110010111111011111, PSTRB = 1111, PRDATA = 00000000000000000000000000000000, PREADY = 1, PSLVERR = 0,count = 8
# [mon] : data received from interface at 160
# PSEL =1,PWRITE = 1, PENABLE = 1, PADDR = 00000000000000000000000110010000, PWDATA = 11111110111101110010111111011111, PSTRB = 1111, PRDATA = 00000000000000000000000000000000, PREADY = 1, PSLVERR = 0                 160
# [scb] : data received from monitor at 160 count = 8
# PSEL =1,PWRITE = 1, PENABLE = 1, PADDR = 00000000000000000000000110010000, PWDATA = 11111110111101110010111111011111, PSTRB = 1111, PRDATA = 00000000000000000000000000000000, PREADY = 1, PSLVERR = 0                 160
# ________________________________
# [scb] match at addr 400: expected = -33,found = -33
# [scb] match at addr 401: expected = 47,found = 47
# [scb] match at addr 402: expected = -9,found = -9
# [scb] match at addr 403: expected = -2,found = -2
# ***********************************************************
# [gen] : data send 170 
# PSEL =1,PWRITE = 0, PENABLE = 1, PADDR = 00000000000000000000001011110111, PWDATA = 10000001110001100001100000000101, PSTRB = 0000, PRDATA = 00000000000000000000000000000000, PREADY = 0, PSLVERR = 0                 170
# [drv] : data send to interface 180
# PSEL =1,PWRITE = 0, PENABLE = 1, PADDR = 00000000000000000000001011110111, PWDATA = 10000001110001100001100000000101, PSTRB = 0000, PRDATA = 00000000000000000000000000000000, PREADY = 1, PSLVERR = 0,count = 9
# [mon] : data received from interface at 180
# PSEL =1,PWRITE = 0, PENABLE = 1, PADDR = 00000000000000000000001011110111, PWDATA = 10000001110001100001100000000101, PSTRB = 0000, PRDATA = 00000000000000000000000000000000, PREADY = 1, PSLVERR = 0                 180
# valid PSTRB
# [scb] : data received from monitor at 180 count = 9
# PSEL =1,PWRITE = 0, PENABLE = 1, PADDR = 00000000000000000000001011110111, PWDATA = 10000001110001100001100000000101, PSTRB = 0000, PRDATA = 00000000000000000000000000000000, PREADY = 1, PSLVERR = 0                 180
# ________________________________
# ***********************************************************
# [gen] : data send 190 
# PSEL =1,PWRITE = 0, PENABLE = 1, PADDR = 00000000000000000000001010111000, PWDATA = 11011010001111111110001110101111, PSTRB = 0000, PRDATA = 00000000000000000000000000000000, PREADY = 0, PSLVERR = 0                 190
# ** Note: $finish    : tb.sv(22)
#    Time: 200 ns  Iteration: 0  Instance: /tb
# End time: 15:54:40 on Apr 22,2025, Elapsed time: 0:00:08
# Errors: 0, Warnings: 0
